%YAML 1.1
%TAG !u! tag:unity3d.com,2011:
--- !u!74 &7400000
AnimationClip:
  m_ObjectHideFlags: 0
  m_CorrespondingSourceObject: {fileID: 0}
  m_PrefabInstance: {fileID: 0}
  m_PrefabAsset: {fileID: 0}
  m_Name: Fairy_Queen_Idle
  serializedVersion: 6
  m_Legacy: 0
  m_Compressed: 0
  m_UseHighQualityCurve: 1
  m_RotationCurves: []
  m_CompressedRotationCurves: []
  m_EulerCurves: []
  m_PositionCurves:
  - curve:
      serializedVersion: 2
      m_Curve:
      - serializedVersion: 3
        time: 0
        value: {x: 0, y: 0, z: 0}
        inSlope: {x: 0, y: 0, z: 0}
        outSlope: {x: 0, y: 0, z: 0}
        tangentMode: 0
        weightedMode: 0
        inWeight: {x: 0, y: 0, z: 0}
        outWeight: {x: 0, y: 0, z: 0}
      - serializedVersion: 3
        time: 1
        value: {x: 0, y: 0.04, z: 0}
        inSlope: {x: 0, y: 0, z: 0}
        outSlope: {x: 0, y: 0, z: 0}
        tangentMode: 0
        weightedMode: 0
        inWeight: {x: 0.33333334, y: 0.33333334, z: 0.33333334}
        outWeight: {x: 0.33333334, y: 0.33333334, z: 0.33333334}
      - serializedVersion: 3
        time: 1.9166666
        value: {x: 0, y: 0, z: 0}
        inSlope: {x: 0, y: 0, z: 0}
        outSlope: {x: 0, y: 0, z: 0}
        tangentMode: 0
        weightedMode: 0
        inWeight: {x: 0, y: 0, z: 0}
        outWeight: {x: 0, y: 0, z: 0}
      m_PreInfinity: 2
      m_PostInfinity: 2
      m_RotationOrder: 4
    path: 
  m_ScaleCurves: []
  m_FloatCurves: []
  m_PPtrCurves:
  - curve:
    - time: 0
      value: {fileID: 21300000, guid: 63818912ecd3b438995e983b83fc1db9, type: 3}
    - time: 0.083333336
      value: {fileID: 21300000, guid: bf5e24c49eedc4a5d93ff9b3da1e4384, type: 3}
    - time: 0.16666667
      value: {fileID: 21300000, guid: dfa62e83cb8be4c0aa99416fc9c84267, type: 3}
    - time: 0.25
      value: {fileID: 21300000, guid: 1d5738155c732468e88acd5411e9ec89, type: 3}
    - time: 0.33333334
      value: {fileID: 21300000, guid: 3610087758b454c21a8541c08e7e6ebe, type: 3}
    - time: 0.41666666
      value: {fileID: 21300000, guid: 5c1e414a0ec2e4d3c8351b0de31d7c2c, type: 3}
    - time: 0.5
      value: {fileID: 21300000, guid: 4f037130c751a49f38bf9eb59dd8c7ec, type: 3}
    - time: 0.5833333
      value: {fileID: 21300000, guid: bf5e24c49eedc4a5d93ff9b3da1e4384, type: 3}
    - time: 0.6666667
      value: {fileID: 21300000, guid: dfa62e83cb8be4c0aa99416fc9c84267, type: 3}
    - time: 0.75
      value: {fileID: 21300000, guid: bf5e24c49eedc4a5d93ff9b3da1e4384, type: 3}
    - time: 0.8333333
      value: {fileID: 21300000, guid: 63818912ecd3b438995e983b83fc1db9, type: 3}
    - time: 0.9166667
      value: {fileID: 21300000, guid: bf5e24c49eedc4a5d93ff9b3da1e4384, type: 3}
    - time: 1
      value: {fileID: 21300000, guid: dfa62e83cb8be4c0aa99416fc9c84267, type: 3}
    - time: 1.0833334
      value: {fileID: 21300000, guid: bf5e24c49eedc4a5d93ff9b3da1e4384, type: 3}
    - time: 1.1666666
      value: {fileID: 21300000, guid: 63818912ecd3b438995e983b83fc1db9, type: 3}
    - time: 1.25
      value: {fileID: 21300000, guid: bf5e24c49eedc4a5d93ff9b3da1e4384, type: 3}
    - time: 1.3333334
      value: {fileID: 21300000, guid: dfa62e83cb8be4c0aa99416fc9c84267, type: 3}
    - time: 1.4166666
      value: {fileID: 21300000, guid: bf5e24c49eedc4a5d93ff9b3da1e4384, type: 3}
    - time: 1.5
      value: {fileID: 21300000, guid: 63818912ecd3b438995e983b83fc1db9, type: 3}
    - time: 1.5833334
      value: {fileID: 21300000, guid: bf5e24c49eedc4a5d93ff9b3da1e4384, type: 3}
    - time: 1.6666666
      value: {fileID: 21300000, guid: dfa62e83cb8be4c0aa99416fc9c84267, type: 3}
    - time: 1.75
      value: {fileID: 21300000, guid: bf5e24c49eedc4a5d93ff9b3da1e4384, type: 3}
    - time: 1.8333334
      value: {fileID: 21300000, guid: 63818912ecd3b438995e983b83fc1db9, type: 3}
    - time: 1.9166666
      value: {fileID: 21300000, guid: bf5e24c49eedc4a5d93ff9b3da1e4384, type: 3}
    attribute: m_Sprite
    path: 
    classID: 212
    script: {fileID: 0}
  m_SampleRate: 12
  m_WrapMode: 0
  m_Bounds:
    m_Center: {x: 0, y: 0, z: 0}
    m_Extent: {x: 0, y: 0, z: 0}
  m_ClipBindingConstant:
    genericBindings:
    - serializedVersion: 2
      path: 0
      attribute: 1
      script: {fileID: 0}
      typeID: 4
      customType: 0
      isPPtrCurve: 0
    - serializedVersion: 2
      path: 0
      attribute: 0
      script: {fileID: 0}
      typeID: 212
      customType: 23
      isPPtrCurve: 1
    pptrCurveMapping:
    - {fileID: 21300000, guid: 63818912ecd3b438995e983b83fc1db9, type: 3}
    - {fileID: 21300000, guid: bf5e24c49eedc4a5d93ff9b3da1e4384, type: 3}
    - {fileID: 21300000, guid: dfa62e83cb8be4c0aa99416fc9c84267, type: 3}
    - {fileID: 21300000, guid: 1d5738155c732468e88acd5411e9ec89, type: 3}
    - {fileID: 21300000, guid: 3610087758b454c21a8541c08e7e6ebe, type: 3}
    - {fileID: 21300000, guid: 5c1e414a0ec2e4d3c8351b0de31d7c2c, type: 3}
    - {fileID: 21300000, guid: 4f037130c751a49f38bf9eb59dd8c7ec, type: 3}
    - {fileID: 21300000, guid: bf5e24c49eedc4a5d93ff9b3da1e4384, type: 3}
    - {fileID: 21300000, guid: dfa62e83cb8be4c0aa99416fc9c84267, type: 3}
    - {fileID: 21300000, guid: bf5e24c49eedc4a5d93ff9b3da1e4384, type: 3}
    - {fileID: 21300000, guid: 63818912ecd3b438995e983b83fc1db9, type: 3}
    - {fileID: 21300000, guid: bf5e24c49eedc4a5d93ff9b3da1e4384, type: 3}
    - {fileID: 21300000, guid: dfa62e83cb8be4c0aa99416fc9c84267, type: 3}
    - {fileID: 21300000, guid: bf5e24c49eedc4a5d93ff9b3da1e4384, type: 3}
    - {fileID: 21300000, guid: 63818912ecd3b438995e983b83fc1db9, type: 3}
    - {fileID: 21300000, guid: bf5e24c49eedc4a5d93ff9b3da1e4384, type: 3}
    - {fileID: 21300000, guid: dfa62e83cb8be4c0aa99416fc9c84267, type: 3}
    - {fileID: 21300000, guid: bf5e24c49eedc4a5d93ff9b3da1e4384, type: 3}
    - {fileID: 21300000, guid: 63818912ecd3b438995e983b83fc1db9, type: 3}
    - {fileID: 21300000, guid: bf5e24c49eedc4a5d93ff9b3da1e4384, type: 3}
    - {fileID: 21300000, guid: dfa62e83cb8be4c0aa99416fc9c84267, type: 3}
    - {fileID: 21300000, guid: bf5e24c49eedc4a5d93ff9b3da1e4384, type: 3}
    - {fileID: 21300000, guid: 63818912ecd3b438995e983b83fc1db9, type: 3}
    - {fileID: 21300000, guid: bf5e24c49eedc4a5d93ff9b3da1e4384, type: 3}
  m_AnimationClipSettings:
    serializedVersion: 2
    m_AdditiveReferencePoseClip: {fileID: 0}
    m_AdditiveReferencePoseTime: 0
    m_StartTime: 0
    m_StopTime: 2
    m_OrientationOffsetY: 0
    m_Level: 0
    m_CycleOffset: 0
    m_HasAdditiveReferencePose: 0
    m_LoopTime: 1
    m_LoopBlend: 0
    m_LoopBlendOrientation: 0
    m_LoopBlendPositionY: 0
    m_LoopBlendPositionXZ: 0
    m_KeepOriginalOrientation: 0
    m_KeepOriginalPositionY: 1
    m_KeepOriginalPositionXZ: 0
    m_HeightFromFeet: 0
    m_Mirror: 0
  m_EditorCurves:
  - curve:
      serializedVersion: 2
      m_Curve:
      - serializedVersion: 3
        time: 0
        value: 0
        inSlope: 0
        outSlope: 0
        tangentMode: 136
        weightedMode: 0
        inWeight: 0
        outWeight: 0
      - serializedVersion: 3
        time: 1
        value: 0
        inSlope: 0
        outSlope: 0
        tangentMode: 136
        weightedMode: 0
        inWeight: 0.33333334
        outWeight: 0.33333334
      - serializedVersion: 3
        time: 1.9166666
        value: 0
        inSlope: 0
        outSlope: 0
        tangentMode: 136
        weightedMode: 0
        inWeight: 0
        outWeight: 0
      m_PreInfinity: 2
      m_PostInfinity: 2
      m_RotationOrder: 4
    attribute: m_LocalPosition.x
    path: 
    classID: 4
    script: {fileID: 0}
  - curve:
      serializedVersion: 2
      m_Curve:
      - serializedVersion: 3
        time: 0
        value: 0
        inSlope: 0
        outSlope: 0
        tangentMode: 136
        weightedMode: 0
        inWeight: 0
        outWeight: 0
      - serializedVersion: 3
        time: 1
        value: 0.04
        inSlope: 0
        outSlope: 0
        tangentMode: 136
        weightedMode: 0
        inWeight: 0.33333334
        outWeight: 0.33333334
      - serializedVersion: 3
        time: 1.9166666
        value: 0
        inSlope: 0
        outSlope: 0
        tangentMode: 136
        weightedMode: 0
        inWeight: 0
        outWeight: 0
      m_PreInfinity: 2
      m_PostInfinity: 2
      m_RotationOrder: 4
    attribute: m_LocalPosition.y
    path: 
    classID: 4
    script: {fileID: 0}
  - curve:
      serializedVersion: 2
      m_Curve:
      - serializedVersion: 3
        time: 0
        value: 0
        inSlope: 0
        outSlope: 0
        tangentMode: 136
        weightedMode: 0
        inWeight: 0
        outWeight: 0
      - serializedVersion: 3
        time: 1
        value: 0
        inSlope: 0
        outSlope: 0
        tangentMode: 136
        weightedMode: 0
        inWeight: 0.33333334
        outWeight: 0.33333334
      - serializedVersion: 3
        time: 1.9166666
        value: 0
        inSlope: 0
        outSlope: 0
        tangentMode: 136
        weightedMode: 0
        inWeight: 0
        outWeight: 0
      m_PreInfinity: 2
      m_PostInfinity: 2
      m_RotationOrder: 4
    attribute: m_LocalPosition.z
    path: 
    classID: 4
    script: {fileID: 0}
  m_EulerEditorCurves: []
  m_HasGenericRootTransform: 1
  m_HasMotionFloatCurves: 0
  m_Events: []
